%YAML 1.1
%TAG !u! tag:unity3d.com,2011:
--- !u!1045 &1
EditorBuildSettings:
  m_ObjectHideFlags: 0
  serializedVersion: 2
  m_Scenes:
  - enabled: 1
    path: Assets/Scenes/Setup.unity
    guid: cc46289972f40f94fa435184e237b8a4
  - enabled: 1
    path: Assets/Scenes/MainMenu.unity
    guid: f33c3ad5faf7c334cb22fe4bc8024857
  - enabled: 1
    path: Assets/Scenes/SkillsScreen.unity
    guid: 9ec28f2717035e8458e5a5e41bd44180
  - enabled: 1
    path: Assets/Scenes/Main.unity
    guid: 2cda990e2423bbf4892e6590ba056729
  - enabled: 1
    path: Assets/Scenes/LeaderBoard.unity
    guid: 0dd48e6da7ab94941b93d2c208c933fb
  m_configObjects: {}
